50;0.1;0.1;2;11
50;0.1;0.1;5;17
50;0.1;0.1;6;16
50;0.1;0.1;1;14
50;0.1;0.1;1;12
50;0.1;0.1;2;12
50;0.1;0.1;12;16
50;0.1;0.1;3;14
50;0.1;0.1;6;14
50;0.1;0.1;3;13
50;0.1;0.3;2;13
50;0.1;0.3;1;12
50;0.1;0.3;1;13
50;0.1;0.3;2;12
50;0.1;0.3;2;14
50;0.1;0.3;2;13
50;0.1;0.3;2;13
50;0.1;0.3;1;15
50;0.1;0.3;0;13
50;0.1;0.3;1;12
50;0.1;0.5;2;12
50;0.1;0.5;1;15
50;0.1;0.5;5;14
50;0.1;0.5;1;13
50;0.1;0.5;1;12
50;0.1;0.5;1;15
50;0.1;0.5;5;14
50;0.1;0.5;1;15
50;0.1;0.5;0;13
50;0.1;0.5;1;15
50;0.1;0.7;1;15
50;0.1;0.7;5;14
50;0.1;0.7;0;15
50;0.1;0.7;1;13
50;0.1;0.7;1;15
50;0.1;0.7;0;13
50;0.1;0.7;5;12
50;0.1;0.7;1;12
50;0.1;0.7;0;15
50;0.1;0.7;2;12
50;0.1;0.9;1;13
50;0.1;0.9;2;15
50;0.1;0.9;7;16
50;0.1;0.9;2;12
50;0.1;0.9;5;12
50;0.1;0.9;1;14
50;0.1;0.9;6;13
50;0.1;0.9;1;13
50;0.1;0.9;5;13
50;0.1;0.9;2;13
50;0.3;0.1;2;13
50;0.3;0.1;3;14
50;0.3;0.1;14;13
50;0.3;0.1;6;14
50;0.3;0.1;2;15
50;0.3;0.1;2;14
50;0.3;0.1;2;16
50;0.3;0.1;2;12
50;0.3;0.1;1;12
50;0.3;0.1;1;13
50;0.3;0.3;0;14
50;0.3;0.3;1;12
50;0.3;0.3;2;14
50;0.3;0.3;1;13
50;0.3;0.3;1;13
50;0.3;0.3;1;13
50;0.3;0.3;0;13
50;0.3;0.3;1;12
50;0.3;0.3;2;14
50;0.3;0.3;1;13
50;0.3;0.5;6;13
50;0.3;0.5;2;12
50;0.3;0.5;1;13
50;0.3;0.5;1;12
50;0.3;0.5;2;13
50;0.3;0.5;1;11
50;0.3;0.5;2;13
50;0.3;0.5;1;14
50;0.3;0.5;2;12
50;0.3;0.5;2;13
50;0.3;0.7;3;12
50;0.3;0.7;1;12
50;0.3;0.7;3;12
50;0.3;0.7;4;13
50;0.3;0.7;3;13
50;0.3;0.7;3;12
50;0.3;0.7;25;14
50;0.3;0.7;2;15
50;0.3;0.7;7;13
50;0.3;0.7;13;13
50;0.3;0.9;3;13
50;0.3;0.9;4;12
50;0.3;0.9;1;12
50;0.3;0.9;1;13
50;0.3;0.9;2;12
50;0.3;0.9;1;13
50;0.3;0.9;17;12
50;0.3;0.9;3;13
50;0.3;0.9;13;12
50;0.3;0.9;3;15
50;0.5;0.1;19;14
50;0.5;0.1;2;14
50;0.5;0.1;4;14
50;0.5;0.1;7;13
50;0.5;0.1;2;13
50;0.5;0.1;2;13
50;0.5;0.1;15;15
50;0.5;0.1;3;15
50;0.5;0.1;1;14
50;0.5;0.1;3;13
50;0.5;0.3;2;13
50;0.5;0.3;4;13
50;0.5;0.3;1;13
50;0.5;0.3;2;12
50;0.5;0.3;2;13
50;0.5;0.3;2;11
50;0.5;0.3;2;13
50;0.5;0.3;1;14
50;0.5;0.3;2;14
50;0.5;0.3;2;13
50;0.5;0.5;5;14
50;0.5;0.5;5;13
50;0.5;0.5;4;13
50;0.5;0.5;5;13
50;0.5;0.5;10;14
50;0.5;0.5;1;13
50;0.5;0.5;5;13
50;0.5;0.5;2;15
50;0.5;0.5;7;12
50;0.5;0.5;2;14
50;0.5;0.7;2;12
50;0.5;0.7;10;17
50;0.5;0.7;9;14
50;0.5;0.7;1;14
50;0.5;0.7;9;15
50;0.5;0.7;10;13
50;0.5;0.7;12;12
50;0.5;0.7;7;12
50;0.5;0.7;10;13
50;0.5;0.7;1;13
50;0.5;0.9;6;12
50;0.5;0.9;36;12
50;0.5;0.9;4;15
50;0.5;0.9;4;13
50;0.5;0.9;4;13
50;0.5;0.9;5;13
50;0.5;0.9;15;14
50;0.5;0.9;11;14
50;0.5;0.9;5;13
50;0.5;0.9;4;15
50;0.7;0.1;2;14
50;0.7;0.1;3;13
50;0.7;0.1;1;14
50;0.7;0.1;2;13
50;0.7;0.1;2;14
50;0.7;0.1;5;16
50;0.7;0.1;3;15
50;0.7;0.1;Inf;Inf
50;0.7;0.1;1;12
50;0.7;0.1;20;12
50;0.7;0.3;3;13
50;0.7;0.3;1;12
50;0.7;0.3;3;12
50;0.7;0.3;16;14
50;0.7;0.3;5;13
50;0.7;0.3;8;14
50;0.7;0.3;10;12
50;0.7;0.3;4;12
50;0.7;0.3;3;13
50;0.7;0.3;79;14
50;0.7;0.5;11;12
50;0.7;0.5;6;13
50;0.7;0.5;5;13
50;0.7;0.5;4;13
50;0.7;0.5;8;14
50;0.7;0.5;6;13
50;0.7;0.5;1;13
50;0.7;0.5;8;15
50;0.7;0.5;6;13
50;0.7;0.5;5;15
50;0.7;0.7;21;12
50;0.7;0.7;2;12
50;0.7;0.7;15;12
50;0.7;0.7;8;12
50;0.7;0.7;3;14
50;0.7;0.7;16;13
50;0.7;0.7;4;13
50;0.7;0.7;10;13
50;0.7;0.7;4;14
50;0.7;0.7;10;12
50;0.7;0.9;18;12
50;0.7;0.9;33;13
50;0.7;0.9;17;13
50;0.7;0.9;51;13
50;0.7;0.9;46;13
50;0.7;0.9;30;12
50;0.7;0.9;7;14
50;0.7;0.9;18;13
50;0.7;0.9;5;14
50;0.7;0.9;5;15
50;0.9;0.1;1;14
50;0.9;0.1;5;13
50;0.9;0.1;Inf;Inf
50;0.9;0.1;12;14
50;0.9;0.1;59;15
50;0.9;0.1;4;13
50;0.9;0.1;2;14
50;0.9;0.1;14;14
50;0.9;0.1;16;13
50;0.9;0.1;67;13
50;0.9;0.3;25;14
50;0.9;0.3;2;16
50;0.9;0.3;3;14
50;0.9;0.3;2;16
50;0.9;0.3;5;14
50;0.9;0.3;13;12
50;0.9;0.3;2;13
50;0.9;0.3;3;14
50;0.9;0.3;3;12
50;0.9;0.3;3;12
50;0.9;0.5;3;14
50;0.9;0.5;12;12
50;0.9;0.5;23;12
50;0.9;0.5;6;14
50;0.9;0.5;7;14
50;0.9;0.5;3;15
50;0.9;0.5;6;13
50;0.9;0.5;3;12
50;0.9;0.5;2;13
50;0.9;0.5;2;14
50;0.9;0.7;15;14
50;0.9;0.7;4;15
50;0.9;0.7;4;12
50;0.9;0.7;1;12
50;0.9;0.7;4;13
50;0.9;0.7;10;13
50;0.9;0.7;33;13
50;0.9;0.7;28;15
50;0.9;0.7;23;12
50;0.9;0.7;12;12
50;0.9;0.9;30;12
50;0.9;0.9;8;12
50;0.9;0.9;31;12
50;0.9;0.9;14;18
50;0.9;0.9;8;13
50;0.9;0.9;7;12
50;0.9;0.9;91;16
50;0.9;0.9;8;12
50;0.9;0.9;7;16
50;0.9;0.9;8;14
100;0.1;0.1;2;13
100;0.1;0.1;2;13
100;0.1;0.1;Inf;Inf
100;0.1;0.1;0;13
100;0.1;0.1;1;16
100;0.1;0.1;1;14
100;0.1;0.1;1;13
100;0.1;0.1;2;14
100;0.1;0.1;3;13
100;0.1;0.1;1;14
100;0.1;0.3;2;14
100;0.1;0.3;1;14
100;0.1;0.3;5;12
100;0.1;0.3;2;12
100;0.1;0.3;4;15
100;0.1;0.3;2;14
100;0.1;0.3;6;14
100;0.1;0.3;1;14
100;0.1;0.3;1;12
100;0.1;0.3;5;14
100;0.1;0.5;4;12
100;0.1;0.5;3;13
100;0.1;0.5;1;12
100;0.1;0.5;1;15
100;0.1;0.5;2;12
100;0.1;0.5;3;15
100;0.1;0.5;6;12
100;0.1;0.5;2;15
100;0.1;0.5;2;14
100;0.1;0.5;1;13
100;0.1;0.7;1;13
100;0.1;0.7;1;12
100;0.1;0.7;3;13
100;0.1;0.7;1;13
100;0.1;0.7;1;12
100;0.1;0.7;1;13
100;0.1;0.7;4;13
100;0.1;0.7;6;13
100;0.1;0.7;6;12
100;0.1;0.7;2;12
100;0.1;0.9;19;12
100;0.1;0.9;12;12
100;0.1;0.9;4;14
100;0.1;0.9;2;13
100;0.1;0.9;2;13
100;0.1;0.9;16;14
100;0.1;0.9;9;12
100;0.1;0.9;21;13
100;0.1;0.9;6;14
100;0.1;0.9;9;13
100;0.3;0.1;6;16
100;0.3;0.1;3;13
100;0.3;0.1;5;12
100;0.3;0.1;22;13
100;0.3;0.1;5;12
100;0.3;0.1;3;15
100;0.3;0.1;5;14
100;0.3;0.1;8;12
100;0.3;0.1;27;15
100;0.3;0.1;5;12
100;0.3;0.3;20;14
100;0.3;0.3;9;14
100;0.3;0.3;2;16
100;0.3;0.3;3;18
100;0.3;0.3;8;14
100;0.3;0.3;5;12
100;0.3;0.3;5;14
100;0.3;0.3;15;13
100;0.3;0.3;2;11
100;0.3;0.3;1;14
100;0.3;0.5;6;14
100;0.3;0.5;3;14
100;0.3;0.5;4;13
100;0.3;0.5;5;12
100;0.3;0.5;2;15
100;0.3;0.5;7;12
100;0.3;0.5;9;13
100;0.3;0.5;11;13
100;0.3;0.5;6;14
100;0.3;0.5;9;16
100;0.3;0.7;3;13
100;0.3;0.7;14;15
100;0.3;0.7;6;13
100;0.3;0.7;4;16
100;0.3;0.7;9;12
100;0.3;0.7;17;13
100;0.3;0.7;15;13
100;0.3;0.7;18;15
100;0.3;0.7;16;13
100;0.3;0.7;6;13
100;0.3;0.9;5;13
100;0.3;0.9;14;14
100;0.3;0.9;4;12
100;0.3;0.9;17;12
100;0.3;0.9;25;12
100;0.3;0.9;10;13
100;0.3;0.9;7;14
100;0.3;0.9;24;14
100;0.3;0.9;46;13
100;0.3;0.9;14;11
100;0.5;0.1;7;13
100;0.5;0.1;17;13
100;0.5;0.1;7;13
100;0.5;0.1;12;15
100;0.5;0.1;9;13
100;0.5;0.1;36;14
100;0.5;0.1;40;14
100;0.5;0.1;25;13
100;0.5;0.1;8;14
100;0.5;0.1;2;14
100;0.5;0.3;4;13
100;0.5;0.3;9;13
100;0.5;0.3;5;12
100;0.5;0.3;1;12
100;0.5;0.3;10;13
100;0.5;0.3;5;13
100;0.5;0.3;4;14
100;0.5;0.3;4;12
100;0.5;0.3;16;12
100;0.5;0.3;8;13
100;0.5;0.5;9;13
100;0.5;0.5;4;14
100;0.5;0.5;8;14
100;0.5;0.5;6;12
100;0.5;0.5;16;13
100;0.5;0.5;6;12
100;0.5;0.5;15;12
100;0.5;0.5;28;12
100;0.5;0.5;3;13
100;0.5;0.5;5;15
100;0.5;0.7;11;14
100;0.5;0.7;4;13
100;0.5;0.7;31;12
100;0.5;0.7;29;12
100;0.5;0.7;5;15
100;0.5;0.7;3;12
100;0.5;0.7;20;13
100;0.5;0.7;10;12
100;0.5;0.7;11;14
100;0.5;0.7;8;12
100;0.5;0.9;17;14
100;0.5;0.9;30;12
100;0.5;0.9;19;14
100;0.5;0.9;23;15
100;0.5;0.9;35;14
100;0.5;0.9;67;13
