50;0.1;0.1;4.1;13.9;2;11;;;7.54;13.74
50;0.1;0.3;1.4;13;1;12;;;4.74;13.12
50;0.1;0.5;1.8;13.8;1;12;;;4.22;13.3
50;0.1;0.7;1.6;13.6;1;12;;;7.56;13.16
50;0.1;0.9;3.2;13.4;2;12;;;12.32;13.28
;;;2.42;13.54;;;;;;
50;0.3;0.1;3.5;13.6;1;12;;;;
50;0.3;0.3;1;13.1;1;12;;;;
50;0.3;0.5;2;12.6;1;11;;;;
50;0.3;0.7;6.4;12.9;1;12;;;;
50;0.3;0.9;4.8;12.7;1;12;;;;
;;;3.54;12.98;;;;;;
50;0.5;0.1;5.8;13.8;2;13;;;;
50;0.5;0.3;2;12.9;2;11;;;;
50;0.5;0.5;4.6;13.4;7;12;;;;
50;0.5;0.7;7.1;13.5;2;12;;;;
50;0.5;0.9;9.4;13.4;6;12;;;;
;;;5.78;13.4;;;;;;
50;0.7;0.1;4.3;13.7;1;12;*;;;
50;0.7;0.3;13.2;12.9;1;12;;;;
50;0.7;0.5;6;13.4;11;12;;;;
50;0.7;0.7;9.3;12.7;2;12;;;;
50;0.7;0.9;23;13.2;18;12;;;;
;;;11.16;13.18;;;;;;
50;0.9;0.1;20;13.7;4;13;*;;;
50;0.9;0.3;6.1;13.7;3;12;;;;
50;0.9;0.5;6.7;13.3;3;12;;;;
50;0.9;0.7;13.4;13.1;1;12;;;;
50;0.9;0.9;21.2;13.7;7;12;;;;
;;;13.48;13.5;;;;;;
